^D:\PROJEKTY\ASSEMBLEROWE\ASM-LAB3-ZAD4\ASM-LAB3-ZAD4\DEBUG\ZAD4.OBJ
D:\PROJEKTY\ASSEMBLEROWE\ASM-LAB3-ZAD4\DEBUG\ASM-LAB3-ZAD4.ILK
D:\PROJEKTY\ASSEMBLEROWE\ASM-LAB3-ZAD4\DEBUG\ASM-LAB3-ZAD4.EXE
D:\PROJEKTY\ASSEMBLEROWE\ASM-LAB3-ZAD4\DEBUG\ASM-LAB3-ZAD4.PDB
